cross_validation
…
rmse(nonlin_mod, test_df)

## [1] 0.3192836

rmse(wiggly_mod, test_df)

## [1] 0.3914703

Iterate!

cv_df = 
  crossv_mc(nonlin_df, 100) # 100 version for training and testing dataset
cv_df %>% pull(train) %>% .[[1]] %>% as_tibble()

## # A tibble: 79 x 3
##       id     x      y
##    <int> <dbl>  <dbl>
##  1     1 0.793 -1.06 
##  2     2 0.482  0.288
##  3     4 0.940 -3.16 
##  4     5 0.210  0.742
##  5     6 0.922 -2.91 
##  6     7 0.994 -3.86 
##  7     8 0.655 -0.735
##  8     9 0.995 -3.74 
##  9    12 0.697 -0.639
## 10    14 0.165  0.601
## # ... with 69 more rows
…
